{
    "orgName": "Dreamhouse",
    "edition": "Developer",
    "hasSampleData": "false",
    "features": [
        "Communities",
        "Sites",
        "SiteDotCom"
    ],
    "settings": {
      "orgPreferenceSettings": {
        "s1DesktopEnabled": true,
        "selfSetPasswordInApi": true,
        "s1EncryptedStoragePref2": false,
        "networksEnabled": true
      }
    }
}